MuonNShared 0.348119 1.055540
MuonIsLooseMuon 0.191418 0.393417
MuonIsMuon 0.166733 0.372737
MuonBkgLL -808.382849 391.772406
MuonMuLL -807.921518 392.719844
TrackFitVeloChi2 6.849418 5.067624
TrackFitVeloNDoF 6.193412 3.109908
TrackFitMatchChi2 10.370667 13.732843
TrackGhostProbability 0.055051 0.092418
TrackP 16218.885286 28568.558713
TrackChi2PerDof 1.282951 0.627732
TrackFitTChi2 16.095526 7.766443
TrackPt 936.115584 1764.037083
TrackNumDof 29.422730 6.024744
TrackFitTNDoF 14.755655 4.034995
InAccSpd 0.853277 0.353829
InAccPrs 0.851351 0.355742
InAccBrem 0.792378 0.405605
InAccEcal 0.817338 0.386389
InAccHcal 0.764484 0.424321
InAccMuon 0.821069 0.383295
CombDLLmu -12.614460 104.688277
CombDLLpi -11.098903 104.712074
CombDLLp -14.876589 107.185125
CombDLLe -13.968992 104.556583
CombDLLk -14.484252 107.220972
RichAboveMuThres 0.918965 0.272889
RichAboveElThres 0.951595 0.214621
RichAbovePiThres 0.858632 0.348401
RichAboveKaThres 0.406858 0.491248
RichAbovePrThres 0.211621 0.408457
RichUsedR1Gas 0.832725 0.373221
RichUsedR2Gas 0.502415 0.499994
RichDLLbt -51.950022 214.861599
RichDLLpi -48.356818 214.406341
RichDLLe -50.886114 214.829173
RichDLLp -52.134504 214.971194
RichDLLmu -49.078387 214.493568
RichDLLk -51.742167 215.057052
CaloBremMatch -74.202192 542.759308
CaloElectronMatch 1003.438152 2409.102941
CaloTrMatch -167.561623 397.017269
CaloTrajectoryL -435.475260 5216.731656
CaloChargedSpd -298.983683 458.250448
CaloChargedPrs -260.902065 484.862693
CaloChargedEcal 4073.721340 8456.629389
CaloNeutralSpd -208.061286 406.157211
CaloNeutralPrs -193.131557 414.725134
CaloNeutralEcal 1690.998519 4852.330722
CaloSpdE -144.299371 354.420911
CaloPrsE -133.828051 362.777281
CaloEcalE 2339.274924 5737.125810
CaloHcalE 2892.556031 7800.952084
EcalPIDmu -183.281752 385.626164
HcalPIDmu -235.844554 423.586071
PrsPIDe -149.855901 354.824182
BremPIDe -207.386499 405.214436
EcalPIDe -183.109181 385.709706
HcalPIDe -235.721516 423.652856
